output/example1/vlt_dump.vcd
$version Generated by VerilatedVcd $end
$timescale 1ps $end
 $scope module top $end
  $scope module LedBlinkTb $end
   $var wire 1 ' clock $end
   $var wire 1 ( reset $end
   $var wire 10 # cycleCount [9:0] $end
   $scope module dut $end
    $var wire 1 ' clock $end
    $var wire 1 ( reset $end
    $var wire 1 $ out $end
    $scope module counterInst $end
     $var wire 1 ' clock $end
     $var wire 1 ( reset $end
     $var wire 1 % full $end
     $var wire 8 & counter [7:0] $end
    $upscope $end
    $scope module flipInst $end
     $var wire 1 ' clock $end
     $var wire 1 ( reset $end
     $var wire 1 % in $end
     $var wire 1 $ out $end
     $var wire 1 $ reg_0 $end
    $upscope $end
   $upscope $end
  $upscope $end
 $upscope $end
$enddefinitions $end


#0
b0000000000 #
0$
0%
b00000000 &
0'
0(
#1000
#2000
#3000
b0000000001 #
b00000001 &
1'
#4000
#5000
#6000
#7000
#8000
0'
#9000
#10000
#11000
#12000
#13000
b0000000010 #
b00000010 &
1'
#14000
#15000
#16000
#17000
#18000
0'
#19000
#20000
#21000
#22000
#23000
b0000000011 #
b00000011 &
1'
#24000
#25000
#26000
#27000
#28000
0'
#29000
#30000
#31000
#32000
#33000
b0000000100 #
b00000100 &
1'
#34000
#35000
#36000
#37000
#38000
0'
#39000
#40000
#41000
#42000
#43000
b0000000101 #
b00000101 &
1'
#44000
#45000
#46000
#47000
#48000
0'
#49000
#50000
#51000
#52000
#53000
b0000000110 #
b00000110 &
1'
#54000
#55000
#56000
#57000
#58000
0'
#59000
#60000
#61000
#62000
#63000
b0000000111 #
b00000111 &
1'
#64000
#65000
#66000
#67000
#68000
0'
#69000
#70000
#71000
#72000
#73000
b0000001000 #
b00001000 &
1'
#74000
#75000
#76000
#77000
#78000
0'
#79000
#80000
#81000
#82000
#83000
b0000001001 #
b00001001 &
1'
#84000
#85000
#86000
#87000
#88000
0'
#89000
#90000
#91000
#92000
#93000
b0000001010 #
b00001010 &
1'
#94000
#95000
#96000
#97000
#98000
0'
#99000
#100000
#101000
#102000
#103000
b0000001011 #
b00001011 &
1'
#104000
#105000
#106000
#107000
#108000
0'
#109000
#110000
#111000
#112000
#113000
b0000001100 #
b00001100 &
1'
#114000
#115000
#116000
#117000
#118000
0'
#119000
#120000
#121000
#122000
#123000
b0000001101 #
b00001101 &
1'
#124000
#125000
#126000
#127000
#128000
0'
#129000
#130000
#131000
#132000
#133000
b0000001110 #
b00001110 &
1'
#134000
#135000
#136000
#137000
#138000
0'
#139000
#140000
#141000
#142000
#143000
b0000001111 #
b00001111 &
1'
#144000
#145000
#146000
#147000
#148000
0'
#149000
#150000
#151000
#152000
#153000
b0000010000 #
b00010000 &
1'
#154000
#155000
#156000
#157000
#158000
0'
#159000
#160000
#161000
#162000
#163000
b0000010001 #
b00010001 &
1'
#164000
#165000
#166000
#167000
#168000
0'
#169000
#170000
#171000
#172000
#173000
b0000010010 #
b00010010 &
1'
#174000
#175000
#176000
#177000
#178000
0'
#179000
#180000
#181000
#182000
#183000
b0000010011 #
b00010011 &
1'
#184000
#185000
#186000
#187000
#188000
0'
#189000
#190000
#191000
#192000
#193000
b0000010100 #
b00010100 &
1'
#194000
#195000
#196000
#197000
#198000
0'
#199000
#200000
#201000
#202000
#203000
b0000010101 #
b00010101 &
1'
#204000
#205000
#206000
#207000
#208000
0'
#209000
#210000
#211000
#212000
#213000
b0000010110 #
b00010110 &
1'
#214000
#215000
#216000
#217000
#218000
0'
#219000
#220000
#221000
#222000
#223000
b0000010111 #
b00010111 &
1'
#224000
#225000
#226000
#227000
#228000
0'
#229000
#230000
#231000
#232000
#233000
b0000011000 #
b00011000 &
1'
#234000
#235000
#236000
#237000
#238000
0'
#239000
#240000
#241000
#242000
#243000
b0000011001 #
b00011001 &
1'
#244000
#245000
#246000
#247000
#248000
0'
#249000
#250000
#251000
#252000
#253000
b0000011010 #
b00011010 &
1'
#254000
#255000
#256000
#257000
#258000
0'
#259000
#260000
#261000
#262000
#263000
b0000011011 #
b00011011 &
1'
#264000
#265000
#266000
#267000
#268000
0'
#269000
#270000
#271000
#272000
#273000
b0000011100 #
b00011100 &
1'
#274000
#275000
#276000
#277000
#278000
0'
#279000
#280000
#281000
#282000
#283000
b0000011101 #
b00011101 &
1'
#284000
#285000
#286000
#287000
#288000
0'
#289000
#290000
#291000
#292000
#293000
b0000011110 #
b00011110 &
1'
#294000
#295000
#296000
#297000
#298000
0'
#299000
#300000
#301000
#302000
#303000
b0000011111 #
b00011111 &
1'
#304000
#305000
#306000
#307000
#308000
0'
#309000
#310000
#311000
#312000
#313000
b0000100000 #
b00100000 &
1'
#314000
#315000
#316000
#317000
#318000
0'
#319000
#320000
#321000
#322000
#323000
b0000100001 #
b00100001 &
1'
#324000
#325000
#326000
#327000
#328000
0'
#329000
#330000
#331000
#332000
#333000
b0000100010 #
b00100010 &
1'
#334000
#335000
#336000
#337000
#338000
0'
#339000
#340000
#341000
#342000
#343000
b0000100011 #
b00100011 &
1'
#344000
#345000
#346000
#347000
#348000
0'
#349000
#350000
#351000
#352000
#353000
b0000100100 #
b00100100 &
1'
#354000
#355000
#356000
#357000
#358000
0'
#359000
#360000
#361000
#362000
#363000
b0000100101 #
b00100101 &
1'
#364000
#365000
#366000
#367000
#368000
0'
#369000
#370000
#371000
#372000
#373000
b0000100110 #
b00100110 &
1'
#374000
#375000
#376000
#377000
#378000
0'
#379000
#380000
#381000
#382000
#383000
b0000100111 #
b00100111 &
1'
#384000
#385000
#386000
#387000
#388000
0'
#389000
#390000
#391000
#392000
#393000
b0000101000 #
b00101000 &
1'
#394000
#395000
#396000
#397000
#398000
0'
#399000
#400000
#401000
#402000
#403000
b0000101001 #
b00101001 &
1'
#404000
#405000
#406000
#407000
#408000
0'
#409000
#410000
#411000
#412000
#413000
b0000101010 #
b00101010 &
1'
#414000
#415000
#416000
#417000
#418000
0'
#419000
#420000
#421000
#422000
#423000
b0000101011 #
b00101011 &
1'
#424000
#425000
#426000
#427000
#428000
0'
#429000
#430000
#431000
#432000
#433000
b0000101100 #
b00101100 &
1'
#434000
#435000
#436000
#437000
#438000
0'
#439000
#440000
#441000
#442000
#443000
b0000101101 #
b00101101 &
1'
#444000
#445000
#446000
#447000
#448000
0'
#449000
#450000
#451000
#452000
#453000
b0000101110 #
b00101110 &
1'
#454000
#455000
#456000
#457000
#458000
0'
#459000
#460000
#461000
#462000
#463000
b0000101111 #
b00101111 &
1'
#464000
#465000
#466000
#467000
#468000
0'
#469000
#470000
#471000
#472000
#473000
b0000110000 #
b00110000 &
1'
#474000
#475000
#476000
#477000
#478000
0'
#479000
#480000
#481000
#482000
#483000
b0000110001 #
b00110001 &
1'
#484000
#485000
#486000
#487000
#488000
0'
#489000
#490000
#491000
#492000
#493000
b0000110010 #
b00110010 &
1'
#494000
#495000
#496000
#497000
#498000
0'
#499000
#500000
#501000
#502000
#503000
b0000110011 #
b00110011 &
1'
#504000
#505000
#506000
#507000
#508000
0'
#509000
#510000
#511000
#512000
#513000
b0000110100 #
b00110100 &
1'
#514000
#515000
#516000
#517000
#518000
0'
#519000
#520000
#521000
#522000
#523000
b0000110101 #
b00110101 &
1'
#524000
#525000
#526000
#527000
#528000
0'
#529000
#530000
#531000
#532000
#533000
b0000110110 #
b00110110 &
1'
#534000
#535000
#536000
#537000
#538000
0'
#539000
#540000
#541000
#542000
#543000
b0000110111 #
b00110111 &
1'
#544000
#545000
#546000
#547000
#548000
0'
#549000
#550000
#551000
#552000
#553000
b0000111000 #
b00111000 &
1'
#554000
#555000
#556000
#557000
#558000
0'
#559000
#560000
#561000
#562000
#563000
b0000111001 #
b00111001 &
1'
#564000
#565000
#566000
#567000
#568000
0'
#569000
#570000
#571000
#572000
#573000
b0000111010 #
b00111010 &
1'
#574000
#575000
#576000
#577000
#578000
0'
#579000
#580000
#581000
#582000
#583000
b0000111011 #
b00111011 &
1'
#584000
#585000
#586000
#587000
#588000
0'
#589000
#590000
#591000
#592000
#593000
b0000111100 #
b00111100 &
1'
#594000
#595000
#596000
#597000
#598000
0'
#599000
#600000
#601000
#602000
#603000
b0000111101 #
b00111101 &
1'
#604000
#605000
#606000
#607000
#608000
0'
#609000
#610000
#611000
#612000
#613000
b0000111110 #
b00111110 &
1'
#614000
#615000
#616000
#617000
#618000
0'
#619000
#620000
#621000
#622000
#623000
b0000111111 #
b00111111 &
1'
#624000
#625000
#626000
#627000
#628000
0'
#629000
#630000
#631000
#632000
#633000
b0001000000 #
b01000000 &
1'
#634000
#635000
#636000
#637000
#638000
0'
#639000
#640000
#641000
#642000
#643000
b0001000001 #
b01000001 &
1'
#644000
#645000
#646000
#647000
#648000
0'
#649000
#650000
#651000
#652000
#653000
b0001000010 #
b01000010 &
1'
#654000
#655000
#656000
#657000
#658000
0'
#659000
#660000
#661000
#662000
#663000
b0001000011 #
b01000011 &
1'
#664000
#665000
#666000
#667000
#668000
0'
#669000
#670000
#671000
#672000
#673000
b0001000100 #
b01000100 &
1'
#674000
#675000
#676000
#677000
#678000
0'
#679000
#680000
#681000
#682000
#683000
b0001000101 #
b01000101 &
1'
#684000
#685000
#686000
#687000
#688000
0'
#689000
#690000
#691000
#692000
#693000
b0001000110 #
b01000110 &
1'
#694000
#695000
#696000
#697000
#698000
0'
#699000
#700000
#701000
#702000
#703000
b0001000111 #
b01000111 &
1'
#704000
#705000
#706000
#707000
#708000
0'
#709000
#710000
#711000
#712000
#713000
b0001001000 #
b01001000 &
1'
#714000
#715000
#716000
#717000
#718000
0'
#719000
#720000
#721000
#722000
#723000
b0001001001 #
b01001001 &
1'
#724000
#725000
#726000
#727000
#728000
0'
#729000
#730000
#731000
#732000
#733000
b0001001010 #
b01001010 &
1'
#734000
#735000
#736000
#737000
#738000
0'
#739000
#740000
#741000
#742000
#743000
b0001001011 #
b01001011 &
1'
#744000
#745000
#746000
#747000
#748000
0'
#749000
#750000
#751000
#752000
#753000
b0001001100 #
b01001100 &
1'
#754000
#755000
#756000
#757000
#758000
0'
#759000
#760000
#761000
#762000
#763000
b0001001101 #
b01001101 &
1'
#764000
#765000
#766000
#767000
#768000
0'
#769000
#770000
#771000
#772000
#773000
b0001001110 #
b01001110 &
1'
#774000
#775000
#776000
#777000
#778000
0'
#779000
#780000
#781000
#782000
#783000
b0001001111 #
b01001111 &
1'
#784000
#785000
#786000
#787000
#788000
0'
#789000
#790000
#791000
#792000
#793000
b0001010000 #
b01010000 &
1'
#794000
#795000
#796000
#797000
#798000
0'
#799000
#800000
#801000
#802000
#803000
b0001010001 #
b01010001 &
1'
#804000
#805000
#806000
#807000
#808000
0'
#809000
#810000
#811000
#812000
#813000
b0001010010 #
b01010010 &
1'
#814000
#815000
#816000
#817000
#818000
0'
#819000
#820000
#821000
#822000
#823000
b0001010011 #
b01010011 &
1'
#824000
#825000
#826000
#827000
#828000
0'
#829000
#830000
#831000
#832000
#833000
b0001010100 #
b01010100 &
1'
#834000
#835000
#836000
#837000
#838000
0'
#839000
#840000
#841000
#842000
#843000
b0001010101 #
b01010101 &
1'
#844000
#845000
#846000
#847000
#848000
0'
#849000
#850000
#851000
#852000
#853000
b0001010110 #
b01010110 &
1'
#854000
#855000
#856000
#857000
#858000
0'
#859000
#860000
#861000
#862000
#863000
b0001010111 #
b01010111 &
1'
#864000
#865000
#866000
#867000
#868000
0'
#869000
#870000
#871000
#872000
#873000
b0001011000 #
b01011000 &
1'
#874000
#875000
#876000
#877000
#878000
0'
#879000
#880000
#881000
#882000
#883000
b0001011001 #
b01011001 &
1'
#884000
#885000
#886000
#887000
#888000
0'
#889000
#890000
#891000
#892000
#893000
b0001011010 #
b01011010 &
1'
#894000
#895000
#896000
#897000
#898000
0'
#899000
#900000
#901000
#902000
#903000
b0001011011 #
b01011011 &
1'
#904000
#905000
#906000
#907000
#908000
0'
#909000
#910000
#911000
#912000
#913000
b0001011100 #
b01011100 &
1'
#914000
#915000
#916000
#917000
#918000
0'
#919000
#920000
#921000
#922000
#923000
b0001011101 #
b01011101 &
1'
#924000
#925000
#926000
#927000
#928000
0'
#929000
#930000
#931000
#932000
#933000
b0001011110 #
b01011110 &
1'
#934000
#935000
#936000
#937000
#938000
0'
#939000
#940000
#941000
#942000
#943000
b0001011111 #
b01011111 &
1'
#944000
#945000
#946000
#947000
#948000
0'
#949000
#950000
#951000
#952000
#953000
b0001100000 #
b01100000 &
1'
#954000
#955000
#956000
#957000
#958000
0'
#959000
#960000
#961000
#962000
#963000
b0001100001 #
b01100001 &
1'
#964000
#965000
#966000
#967000
#968000
0'
#969000
#970000
#971000
#972000
#973000
b0001100010 #
b01100010 &
1'
#974000
#975000
#976000
#977000
#978000
0'
#979000
#980000
#981000
#982000
#983000
b0001100011 #
b01100011 &
1'
#984000
#985000
#986000
#987000
#988000
0'
#989000
#990000
#991000
#992000
#993000
b0001100100 #
b01100100 &
1'
#994000
#995000
#996000
#997000
#998000
0'
#999000
#1000000
#1001000
#1002000
#1003000
b0001100101 #
b01100101 &
1'
#1004000
#1005000
#1006000
#1007000
#1008000
0'
#1009000
#1010000
#1011000
#1012000
#1013000
b0001100110 #
b01100110 &
1'
#1014000
#1015000
#1016000
#1017000
#1018000
0'
#1019000
#1020000
#1021000
#1022000
#1023000
b0001100111 #
b01100111 &
1'
#1024000
#1025000
#1026000
#1027000
#1028000
0'
#1029000
#1030000
#1031000
#1032000
#1033000
b0001101000 #
b01101000 &
1'
#1034000
#1035000
#1036000
#1037000
#1038000
0'
#1039000
#1040000
#1041000
#1042000
#1043000
b0001101001 #
b01101001 &
1'
#1044000
#1045000
#1046000
#1047000
#1048000
0'
#1049000
#1050000
#1051000
#1052000
#1053000
b0001101010 #
b01101010 &
1'
#1054000
#1055000
#1056000
#1057000
#1058000
0'
#1059000
#1060000
#1061000
#1062000
#1063000
b0001101011 #
b01101011 &
1'
#1064000
#1065000
#1066000
#1067000
#1068000
0'
#1069000
#1070000
#1071000
#1072000
#1073000
b0001101100 #
b01101100 &
1'
#1074000
#1075000
#1076000
#1077000
#1078000
0'
#1079000
#1080000
#1081000
#1082000
#1083000
b0001101101 #
b01101101 &
1'
#1084000
#1085000
#1086000
#1087000
#1088000
0'
#1089000
#1090000
#1091000
#1092000
#1093000
b0001101110 #
b01101110 &
1'
#1094000
#1095000
#1096000
#1097000
#1098000
0'
#1099000
#1100000
#1101000
#1102000
#1103000
b0001101111 #
b01101111 &
1'
#1104000
#1105000
#1106000
#1107000
#1108000
0'
#1109000
#1110000
#1111000
#1112000
#1113000
b0001110000 #
b01110000 &
1'
#1114000
#1115000
#1116000
#1117000
#1118000
0'
#1119000
#1120000
#1121000
#1122000
#1123000
b0001110001 #
b01110001 &
1'
#1124000
#1125000
#1126000
#1127000
#1128000
0'
#1129000
#1130000
#1131000
#1132000
#1133000
b0001110010 #
b01110010 &
1'
#1134000
#1135000
#1136000
#1137000
#1138000
0'
#1139000
#1140000
#1141000
#1142000
#1143000
b0001110011 #
b01110011 &
1'
#1144000
#1145000
#1146000
#1147000
#1148000
0'
#1149000
#1150000
#1151000
#1152000
#1153000
b0001110100 #
b01110100 &
1'
#1154000
#1155000
#1156000
#1157000
#1158000
0'
#1159000
#1160000
#1161000
#1162000
#1163000
b0001110101 #
b01110101 &
1'
#1164000
#1165000
#1166000
#1167000
#1168000
0'
#1169000
#1170000
#1171000
#1172000
#1173000
b0001110110 #
b01110110 &
1'
#1174000
#1175000
#1176000
#1177000
#1178000
0'
#1179000
#1180000
#1181000
#1182000
#1183000
b0001110111 #
b01110111 &
1'
#1184000
#1185000
#1186000
#1187000
#1188000
0'
#1189000
#1190000
#1191000
#1192000
#1193000
b0001111000 #
b01111000 &
1'
#1194000
#1195000
#1196000
#1197000
#1198000
0'
#1199000
#1200000
#1201000
#1202000
#1203000
b0001111001 #
b01111001 &
1'
#1204000
#1205000
#1206000
#1207000
#1208000
0'
#1209000
#1210000
#1211000
#1212000
#1213000
b0001111010 #
b01111010 &
1'
#1214000
#1215000
#1216000
#1217000
#1218000
0'
#1219000
#1220000
#1221000
#1222000
#1223000
b0001111011 #
b01111011 &
1'
#1224000
#1225000
#1226000
#1227000
#1228000
0'
#1229000
#1230000
#1231000
#1232000
#1233000
b0001111100 #
b01111100 &
1'
#1234000
#1235000
#1236000
#1237000
#1238000
0'
#1239000
#1240000
#1241000
#1242000
#1243000
b0001111101 #
b01111101 &
1'
#1244000
#1245000
#1246000
#1247000
#1248000
0'
#1249000
#1250000
#1251000
#1252000
#1253000
b0001111110 #
b01111110 &
1'
#1254000
#1255000
#1256000
#1257000
#1258000
0'
#1259000
#1260000
#1261000
#1262000
#1263000
b0001111111 #
b01111111 &
1'
#1264000
#1265000
#1266000
#1267000
#1268000
0'
#1269000
#1270000
#1271000
#1272000
#1273000
b0010000000 #
b10000000 &
1'
#1274000
#1275000
#1276000
#1277000
#1278000
0'
#1279000
#1280000
#1281000
#1282000
#1283000
b0010000001 #
b10000001 &
1'
#1284000
#1285000
#1286000
#1287000
#1288000
0'
#1289000
#1290000
#1291000
#1292000
#1293000
b0010000010 #
b10000010 &
1'
#1294000
#1295000
#1296000
#1297000
#1298000
0'
#1299000
#1300000
#1301000
#1302000
#1303000
b0010000011 #
b10000011 &
1'
#1304000
#1305000
#1306000
#1307000
#1308000
0'
#1309000
#1310000
#1311000
#1312000
#1313000
b0010000100 #
b10000100 &
1'
#1314000
#1315000
#1316000
#1317000
#1318000
0'
#1319000
#1320000
#1321000
#1322000
#1323000
b0010000101 #
b10000101 &
1'
#1324000
#1325000
#1326000
#1327000
#1328000
0'
#1329000
#1330000
#1331000
#1332000
#1333000
b0010000110 #
b10000110 &
1'
#1334000
#1335000
#1336000
#1337000
#1338000
0'
#1339000
#1340000
#1341000
#1342000
#1343000
b0010000111 #
b10000111 &
1'
#1344000
#1345000
#1346000
#1347000
#1348000
0'
#1349000
#1350000
#1351000
#1352000
#1353000
b0010001000 #
b10001000 &
1'
#1354000
#1355000
#1356000
#1357000
#1358000
0'
#1359000
#1360000
#1361000
#1362000
#1363000
b0010001001 #
b10001001 &
1'
#1364000
#1365000
#1366000
#1367000
#1368000
0'
#1369000
#1370000
#1371000
#1372000
#1373000
b0010001010 #
b10001010 &
1'
#1374000
#1375000
#1376000
#1377000
#1378000
0'
#1379000
#1380000
#1381000
#1382000
#1383000
b0010001011 #
b10001011 &
1'
#1384000
#1385000
#1386000
#1387000
#1388000
0'
#1389000
#1390000
#1391000
#1392000
#1393000
b0010001100 #
b10001100 &
1'
#1394000
#1395000
#1396000
#1397000
#1398000
0'
#1399000
#1400000
#1401000
#1402000
#1403000
b0010001101 #
b10001101 &
1'
#1404000
#1405000
#1406000
#1407000
#1408000
0'
#1409000
#1410000
#1411000
#1412000
#1413000
b0010001110 #
b10001110 &
1'
#1414000
#1415000
#1416000
#1417000
#1418000
0'
#1419000
#1420000
#1421000
#1422000
#1423000
b0010001111 #
b10001111 &
1'
#1424000
#1425000
#1426000
#1427000
#1428000
0'
#1429000
#1430000
#1431000
#1432000
#1433000
b0010010000 #
b10010000 &
1'
#1434000
#1435000
#1436000
#1437000
#1438000
0'
#1439000
#1440000
#1441000
#1442000
#1443000
b0010010001 #
b10010001 &
1'
#1444000
#1445000
#1446000
#1447000
#1448000
0'
#1449000
#1450000
#1451000
#1452000
#1453000
b0010010010 #
b10010010 &
1'
#1454000
#1455000
#1456000
#1457000
#1458000
0'
#1459000
#1460000
#1461000
#1462000
#1463000
b0010010011 #
b10010011 &
1'
#1464000
#1465000
#1466000
#1467000
#1468000
0'
#1469000
#1470000
#1471000
#1472000
#1473000
b0010010100 #
b10010100 &
1'
#1474000
#1475000
#1476000
#1477000
#1478000
0'
#1479000
#1480000
#1481000
#1482000
#1483000
b0010010101 #
b10010101 &
1'
#1484000
#1485000
#1486000
#1487000
#1488000
0'
#1489000
#1490000
#1491000
#1492000
#1493000
b0010010110 #
b10010110 &
1'
#1494000
#1495000
#1496000
#1497000
#1498000
0'
#1499000
#1500000
#1501000
#1502000
#1503000
b0010010111 #
b10010111 &
1'
#1504000
#1505000
#1506000
#1507000
#1508000
0'
#1509000
#1510000
#1511000
#1512000
#1513000
b0010011000 #
b10011000 &
1'
#1514000
#1515000
#1516000
#1517000
#1518000
0'
#1519000
#1520000
#1521000
#1522000
#1523000
b0010011001 #
b10011001 &
1'
#1524000
#1525000
#1526000
#1527000
#1528000
0'
#1529000
#1530000
#1531000
#1532000
#1533000
b0010011010 #
b10011010 &
1'
#1534000
#1535000
#1536000
#1537000
#1538000
0'
#1539000
#1540000
#1541000
#1542000
#1543000
b0010011011 #
b10011011 &
1'
#1544000
#1545000
#1546000
#1547000
#1548000
0'
#1549000
#1550000
#1551000
#1552000
#1553000
b0010011100 #
b10011100 &
1'
#1554000
#1555000
#1556000
#1557000
#1558000
0'
#1559000
#1560000
#1561000
#1562000
#1563000
b0010011101 #
b10011101 &
1'
#1564000
#1565000
#1566000
#1567000
#1568000
0'
#1569000
#1570000
#1571000
#1572000
#1573000
b0010011110 #
b10011110 &
1'
#1574000
#1575000
#1576000
#1577000
#1578000
0'
#1579000
#1580000
#1581000
#1582000
#1583000
b0010011111 #
b10011111 &
1'
#1584000
#1585000
#1586000
#1587000
#1588000
0'
#1589000
#1590000
#1591000
#1592000
#1593000
b0010100000 #
b10100000 &
1'
#1594000
#1595000
#1596000
#1597000
#1598000
0'
#1599000
#1600000
#1601000
#1602000
#1603000
b0010100001 #
b10100001 &
1'
#1604000
#1605000
#1606000
#1607000
#1608000
0'
#1609000
#1610000
#1611000
#1612000
#1613000
b0010100010 #
b10100010 &
1'
#1614000
#1615000
#1616000
#1617000
#1618000
0'
#1619000
#1620000
#1621000
#1622000
#1623000
b0010100011 #
b10100011 &
1'
#1624000
#1625000
#1626000
#1627000
#1628000
0'
#1629000
#1630000
#1631000
#1632000
#1633000
b0010100100 #
b10100100 &
1'
#1634000
#1635000
#1636000
#1637000
#1638000
0'
#1639000
#1640000
#1641000
#1642000
#1643000
b0010100101 #
b10100101 &
1'
#1644000
#1645000
#1646000
#1647000
#1648000
0'
#1649000
#1650000
#1651000
#1652000
#1653000
b0010100110 #
b10100110 &
1'
#1654000
#1655000
#1656000
#1657000
#1658000
0'
#1659000
#1660000
#1661000
#1662000
#1663000
b0010100111 #
b10100111 &
1'
#1664000
#1665000
#1666000
#1667000
#1668000
0'
#1669000
#1670000
#1671000
#1672000
#1673000
b0010101000 #
b10101000 &
1'
#1674000
#1675000
#1676000
#1677000
#1678000
0'
#1679000
#1680000
#1681000
#1682000
#1683000
b0010101001 #
b10101001 &
1'
#1684000
#1685000
#1686000
#1687000
#1688000
0'
#1689000
#1690000
#1691000
#1692000
#1693000
b0010101010 #
b10101010 &
1'
#1694000
#1695000
#1696000
#1697000
#1698000
0'
#1699000
#1700000
#1701000
#1702000
#1703000
b0010101011 #
b10101011 &
1'
#1704000
#1705000
#1706000
#1707000
#1708000
0'
#1709000
#1710000
#1711000
#1712000
#1713000
b0010101100 #
b10101100 &
1'
#1714000
#1715000
#1716000
#1717000
#1718000
0'
#1719000
#1720000
#1721000
#1722000
#1723000
b0010101101 #
b10101101 &
1'
#1724000
#1725000
#1726000
#1727000
#1728000
0'
#1729000
#1730000
#1731000
#1732000
#1733000
b0010101110 #
b10101110 &
1'
#1734000
#1735000
#1736000
#1737000
#1738000
0'
#1739000
#1740000
#1741000
#1742000
#1743000
b0010101111 #
b10101111 &
1'
#1744000
#1745000
#1746000
#1747000
#1748000
0'
#1749000
#1750000
#1751000
#1752000
#1753000
b0010110000 #
b10110000 &
1'
#1754000
#1755000
#1756000
#1757000
#1758000
0'
#1759000
#1760000
#1761000
#1762000
#1763000
b0010110001 #
b10110001 &
1'
#1764000
#1765000
#1766000
#1767000
#1768000
0'
#1769000
#1770000
#1771000
#1772000
#1773000
b0010110010 #
b10110010 &
1'
#1774000
#1775000
#1776000
#1777000
#1778000
0'
#1779000
#1780000
#1781000
#1782000
#1783000
b0010110011 #
b10110011 &
1'
#1784000
#1785000
#1786000
#1787000
#1788000
0'
#1789000
#1790000
#1791000
#1792000
#1793000
b0010110100 #
b10110100 &
1'
#1794000
#1795000
#1796000
#1797000
#1798000
0'
#1799000
#1800000
#1801000
#1802000
#1803000
b0010110101 #
b10110101 &
1'
#1804000
#1805000
#1806000
#1807000
#1808000
0'
#1809000
#1810000
#1811000
#1812000
#1813000
b0010110110 #
b10110110 &
1'
#1814000
#1815000
#1816000
#1817000
#1818000
0'
#1819000
#1820000
#1821000
#1822000
#1823000
b0010110111 #
b10110111 &
1'
#1824000
#1825000
#1826000
#1827000
#1828000
0'
#1829000
#1830000
#1831000
#1832000
#1833000
b0010111000 #
b10111000 &
1'
#1834000
#1835000
#1836000
#1837000
#1838000
0'
#1839000
#1840000
#1841000
#1842000
#1843000
b0010111001 #
b10111001 &
1'
#1844000
#1845000
#1846000
#1847000
#1848000
0'
#1849000
#1850000
#1851000
#1852000
#1853000
b0010111010 #
b10111010 &
1'
#1854000
#1855000
#1856000
#1857000
#1858000
0'
#1859000
#1860000
#1861000
#1862000
#1863000
b0010111011 #
b10111011 &
1'
#1864000
#1865000
#1866000
#1867000
#1868000
0'
#1869000
#1870000
#1871000
#1872000
#1873000
b0010111100 #
b10111100 &
1'
#1874000
#1875000
#1876000
#1877000
#1878000
0'
#1879000
#1880000
#1881000
#1882000
#1883000
b0010111101 #
b10111101 &
1'
#1884000
#1885000
#1886000
#1887000
#1888000
0'
#1889000
#1890000
#1891000
#1892000
#1893000
b0010111110 #
b10111110 &
1'
#1894000
#1895000
#1896000
#1897000
#1898000
0'
#1899000
#1900000
#1901000
#1902000
#1903000
b0010111111 #
b10111111 &
1'
#1904000
#1905000
#1906000
#1907000
#1908000
0'
#1909000
#1910000
#1911000
#1912000
#1913000
b0011000000 #
b11000000 &
1'
#1914000
#1915000
#1916000
#1917000
#1918000
0'
#1919000
#1920000
#1921000
#1922000
#1923000
b0011000001 #
b11000001 &
1'
#1924000
#1925000
#1926000
#1927000
#1928000
0'
#1929000
#1930000
#1931000
#1932000
#1933000
b0011000010 #
b11000010 &
1'
#1934000
#1935000
#1936000
#1937000
#1938000
0'
#1939000
#1940000
#1941000
#1942000
#1943000
b0011000011 #
b11000011 &
1'
#1944000
#1945000
#1946000
#1947000
#1948000
0'
#1949000
#1950000
#1951000
#1952000
#1953000
b0011000100 #
b11000100 &
1'
#1954000
#1955000
#1956000
#1957000
#1958000
0'
#1959000
#1960000
#1961000
#1962000
#1963000
b0011000101 #
b11000101 &
1'
#1964000
#1965000
#1966000
#1967000
#1968000
0'
#1969000
#1970000
#1971000
#1972000
#1973000
b0011000110 #
b11000110 &
1'
#1974000
#1975000
#1976000
#1977000
#1978000
0'
#1979000
#1980000
#1981000
#1982000
#1983000
b0011000111 #
b11000111 &
1'
#1984000
#1985000
#1986000
#1987000
#1988000
0'
#1989000
#1990000
#1991000
#1992000
#1993000
b0011001000 #
b11001000 &
1'
#1994000
#1995000
#1996000
#1997000
#1998000
0'
#1999000
#2000000
#2001000
#2002000
#2003000
b0011001001 #
b11001001 &
1'
#2004000
#2005000
#2006000
#2007000
#2008000
0'
#2009000
#2010000
#2011000
#2012000
#2013000
b0011001010 #
b11001010 &
1'
#2014000
#2015000
#2016000
#2017000
#2018000
0'
#2019000
#2020000
#2021000
#2022000
#2023000
b0011001011 #
b11001011 &
1'
#2024000
#2025000
#2026000
#2027000
#2028000
0'
#2029000
#2030000
#2031000
#2032000
#2033000
b0011001100 #
b11001100 &
1'
#2034000
#2035000
#2036000
#2037000
#2038000
0'
#2039000
#2040000
#2041000
#2042000
#2043000
b0011001101 #
b11001101 &
1'
#2044000
#2045000
#2046000
#2047000
#2048000
0'
#2049000
#2050000
#2051000
#2052000
#2053000
b0011001110 #
b11001110 &
1'
#2054000
#2055000
#2056000
#2057000
#2058000
0'
#2059000
#2060000
#2061000
#2062000
#2063000
b0011001111 #
b11001111 &
1'
#2064000
#2065000
#2066000
#2067000
#2068000
0'
#2069000
#2070000
#2071000
#2072000
#2073000
b0011010000 #
b11010000 &
1'
#2074000
#2075000
#2076000
#2077000
#2078000
0'
#2079000
#2080000
#2081000
#2082000
#2083000
b0011010001 #
b11010001 &
1'
#2084000
#2085000
#2086000
#2087000
#2088000
0'
#2089000
#2090000
#2091000
#2092000
#2093000
b0011010010 #
b11010010 &
1'
#2094000
#2095000
#2096000
#2097000
#2098000
0'
#2099000
#2100000
#2101000
#2102000
#2103000
b0011010011 #
b11010011 &
1'
#2104000
#2105000
#2106000
#2107000
#2108000
0'
#2109000
#2110000
#2111000
#2112000
#2113000
b0011010100 #
b11010100 &
1'
#2114000
#2115000
#2116000
#2117000
#2118000
0'
#2119000
#2120000
#2121000
#2122000
#2123000
b0011010101 #
b11010101 &
1'
#2124000
#2125000
#2126000
#2127000
#2128000
0'
#2129000
#2130000
#2131000
#2132000
#2133000
b0011010110 #
b11010110 &
1'
#2134000
#2135000
#2136000
#2137000
#2138000
0'
#2139000
#2140000
#2141000
#2142000
#2143000
b0011010111 #
b11010111 &
1'
#2144000
#2145000
#2146000
#2147000
#2148000
0'
#2149000
#2150000
#2151000
#2152000
#2153000
b0011011000 #
b11011000 &
1'
#2154000
#2155000
#2156000
#2157000
#2158000
0'
#2159000
#2160000
#2161000
#2162000
#2163000
b0011011001 #
b11011001 &
1'
#2164000
#2165000
#2166000
#2167000
#2168000
0'
#2169000
#2170000
#2171000
#2172000
#2173000
b0011011010 #
b11011010 &
1'
#2174000
#2175000
#2176000
#2177000
#2178000
0'
#2179000
#2180000
#2181000
#2182000
#2183000
b0011011011 #
b11011011 &
1'
#2184000
#2185000
#2186000
#2187000
#2188000
0'
#2189000
#2190000
#2191000
#2192000
#2193000
b0011011100 #
b11011100 &
1'
